…
``` r
n <- 100

set.seed(1)

d <-
  tibble(xx = rnorm(n, mean = 0, sd = 1)^2,
         z  = rep(0:1, n / 2)) %>% 
  mutate(yy = rnorm(n, mean = 20 + 5 * xx + 10 * z, sd = 3))

d
```

    ## # A tibble: 100 x 3
    ##        xx     z    yy
    ##     <dbl> <int> <dbl>
    ##  1 0.392      0  20.1
    ##  2 0.0337     1  30.3
    ##  3 0.698      0  20.8
    ##  4 2.54       1  43.2
    ##  5 0.109      0  18.6
    ##  6 0.673      1  38.7
    ##  7 0.238      0  23.3
    ##  8 0.545      1  35.5
    ##  9 0.332      0  22.8
    ## 10 0.0933     1  35.5
    ## # … with 90 more rows
…
