…
  return(d)
  
}
```

Our custom `make_data()` function works like this.

``` r
make_data(27)
```

    ## # A tibble: 442 x 6
    ##    state_code region   inc dvote1 dvote2 contested
    ##         <int>  <dbl> <int>  <dbl>  <dbl> <lgl>    
    ##  1          1      1    -1  0.553  0.582 TRUE     
    ##  2          1      1    -1  0.516  0.492 TRUE     
    ##  3          1      1    -1  0.503  0.521 TRUE     
    ##  4          1      1    -1  0.440  0.442 TRUE     
    ##  5          1      1    -1  0.481  0.463 TRUE     
    ##  6          1      1    -1  0.498  0.496 TRUE     
    ##  7          2      1    -1  0.375  0.460 TRUE     
    ##  8          2      1     0  0.328  0.423 TRUE     
    ##  9          2      1    -1  0.291  0.371 TRUE     
    ## 10          3      1    -1  0.428  0.311 TRUE     
    ## # … with 432 more rows
…
proportion
```

    ## # A tibble: 150 x 4
    ##     Year   Age Population proportion
    ##    <dbl> <dbl>      <dbl>      <dbl>
    ##  1  1999    45    3166393     0.113 
    ##  2  1999    46    3007083     0.107 
    ##  3  1999    47    2986252     0.107 
    ##  4  1999    48    2805975     0.100 
    ##  5  1999    49    2859406     0.102 
    ##  6  1999    50    2868751     0.102 
    ##  7  1999    51    2804957     0.100 
    ##  8  1999    52    3093631     0.111 
    ##  9  1999    53    2148382     0.0767
    ## 10  1999    54    2254975     0.0805
    ## # … with 140 more rows
…
