…
Here we’ll rename the variables and save the results as `d`.

``` r
voters <- c(600, 1200, 2444, 3444, 4444, 5553)

d <- 
  data %>% 
  set_names("id1", voters, "id2")

d
```

    ## # A tibble: 27 x 8
    ##    id1                `600` `1200` `2444` `3444` `4444` `5553` id2            
    ##    <chr>              <dbl>  <dbl>  <dbl>  <dbl>  <dbl>  <dbl> <chr>          
    ##  1 Othelia Jones        208    416    867   1259   1610   2020 Clotelia Smith 
    ##  2 Roger Toppin          55    106    215    313    401    505 Earl Coppin    
    ##  3 Vanessa Fuentes      133    250    505    716    902   1129 Clarissa Montes
    ##  4 Gloria Wharton       101    202    406    589    787    976 <NA>           
    ##  5 Bernard Cylich       108    249    512    745    970   1192 <NA>           
    ##  6 Cecil McIntosh        54     94    196    279    360    451 <NA>           
    ##  7 Alan Berger          158    327    673    963   1236   1519 <NA>           
    ##  8 Betty Wright-Wells    52    115    232    308    400    502 <NA>           
    ##  9 Geraldine Shivers     64    126    222    316    407    507 <NA>           
    ## 10 Josephine Dance       68    130    256    336    420    530 <NA>           
    ## # … with 17 more rows
…
# what have we done?
d_sum
```

    ## # A tibble: 162 x 4
    ## # Groups:   id1 [27]
    ##    id1           stage tally count
    ##    <chr>         <chr> <dbl> <dbl>
    ##  1 Othelia Jones 600     208   600
    ##  2 Othelia Jones 1200    208   600
    ##  3 Othelia Jones 2444    451  1244
    ##  4 Othelia Jones 3444    392  1000
    ##  5 Othelia Jones 4444    351  1000
    ##  6 Othelia Jones 5553    410  1109
    ##  7 Roger Toppin  600      55   600
    ##  8 Roger Toppin  1200     51   600
    ##  9 Roger Toppin  2444    109  1244
    ## 10 Roger Toppin  3444     98  1000
    ## # … with 152 more rows
…
chisq
```

    ## # A tibble: 27 x 3
    ##    id1                chisq p_value
    ##    <chr>              <dbl>   <dbl>
    ##  1 Al Shapiro          1.96   0.145
    ##  2 Alan Berger         3.89   0.435
    ##  3 Alice Rosario       7.13   0.789
    ##  4 Alonzo Newton       7.90   0.838
    ##  5 Andrea Leslie       6.71   0.757
    ##  6 Bernard Cylich      9.83   0.920
    ##  7 Betty Wright-Wells  4.45   0.513
    ##  8 Cecil McIntosh      2.39   0.206
    ##  9 Craig Williams      5.09   0.596
    ## 10 Elaine Johnson      4.05   0.458
    ## # … with 17 more rows
…
