…
d <-
  tibble(birth_type = sample(c("fraternal twin", "identical twin", "single birth"),
                             size = 1000, 
                             replace = T, 
                             prob = c(1/125, 1/300, 1 - 1/125 - 1/300))) %>% 
  mutate(girls = ifelse(birth_type == "single birth", 
                        rbinom(n = 1000, size = size, prob = .488),
                        ifelse(birth_type == "identical twin", 
                               2 * rbinom(n = 1000, size = size, prob = .495),
                               rbinom(n = 1000, size = size, prob = .495))))

d
```

    ## # A tibble: 1,000 x 2
    ##    birth_type   girls
    ##    <chr>        <int>
    ##  1 single birth   202
    ##  2 single birth   201
    ##  3 single birth   210
    ##  4 single birth   191
    ##  5 single birth   190
    ##  6 single birth   189
    ##  7 single birth   204
    ##  8 single birth   193
    ##  9 single birth   183
    ## 10 single birth   205
    ## # … with 990 more rows
…
