…
We have a nested tibble where the iterations are indexed by `seed` and
results of each are nested within `cover` We can get a look inside the
`cover` column with `unnest()`.

``` r
sim1 %>% 
  unnest(cover)
```

    ## # A tibble: 1,000 x 3
    ##     seed cover_68 cover_95
    ##    <int> <lgl>    <lgl>   
    ##  1     1 TRUE     TRUE    
    ##  2     2 TRUE     TRUE    
    ##  3     3 FALSE    TRUE    
    ##  4     4 FALSE    TRUE    
    ##  5     5 FALSE    TRUE    
    ##  6     6 TRUE     TRUE    
    ##  7     7 FALSE    TRUE    
    ##  8     8 TRUE     TRUE    
    ##  9     9 FALSE    TRUE    
    ## 10    10 TRUE     TRUE    
    ## # … with 990 more rows
…
    ## [1] 1.724332

Bind the two `y_` vectors into a single tibble, with an indicator
variable, `x`.

``` r
fake <-
  tibble(x = rep(0:1, times = c(n_0, n_1)),
         y = c(y_0, y_1))

fake
```

    ## # A tibble: 50 x 2
    ##        x       y
    ##    <int>   <dbl>
    ##  1     0 13.4   
    ##  2     0 -3.98  
    ##  3     0 -1.47  
    ##  4     0 -0.0615
    ##  5     0 -2.85  
    ##  6     0 -2.74  
    ##  7     0  5.74  
    ##  8     0  1.42  
    ##  9     0  2.76  
    ## 10     0 12.9   
    ## # … with 40 more rows
…
