…
``` r
table <-
  table %>% 
  rowwise() %>% 
  mutate(dems_pred = sum(c_across(y1:y435) > 0.5))

table %>% 
  select(dems_pred)
```

    ## # A tibble: 4,000 x 1
    ## # Rowwise: 
    ##    dems_pred
    ##        <int>
    ##  1       258
    ##  2       258
    ##  3       260
    ##  4       260
    ##  5       260
    ##  6       263
    ##  7       261
    ##  8       263
    ##  9       263
    ## 10       257
    ## # … with 3,990 more rows
…
What did we do?

``` r
sim %>% 
  unnest(fixef)
```

    ## # A tibble: 72 x 6
    ##     year parameter           Estimate Est.Error    Q2.5   Q97.5
    ##    <int> <chr>                  <dbl>     <dbl>   <dbl>   <dbl>
    ##  1  1972 Intercept            1.77       0.402   0.973   2.52  
    ##  2  1972 real_ideo            0.485      0.0431  0.401   0.570 
    ##  3  1972 race_adj            -1.11       0.191  -1.47   -0.723 
    ##  4  1972 factorage_discrete2 -0.188      0.141  -0.470   0.0903
    ##  5  1972 factorage_discrete3 -0.0470     0.140  -0.309   0.235 
    ##  6  1972 factorage_discrete4  0.510      0.186   0.158   0.892 
    ##  7  1972 educ1                0.297      0.0617  0.178   0.419 
    ##  8  1972 female              -0.00961    0.102  -0.209   0.195 
    ##  9  1972 income               0.160      0.0529  0.0527  0.262 
    ## 10  1976 Intercept            1.10       0.392   0.326   1.87  
    ## # … with 62 more rows
…
