…
Also note `posterior_linpred()` and `posterior_epred()` can be converted
to one another using the `logit()` and `invlogit()` functions. Check it
out.

``` r
tibble(linpred = linpred,
       epred   = epred) %>% 
  mutate(`invlogit(linpred)` = invlogit(linpred),
         `logit(epred)`      = logit(epred))
```

    ## # A tibble: 4,000 × 4
    ##    linpred[,1] epred[,1] `invlogit(linpred)`[,1] `logit(epred)`[,1]
    ##          <dbl>     <dbl>                   <dbl>              <dbl>
    ##  1     0.302       0.575                   0.575            0.302  
    ##  2     0.307       0.576                   0.576            0.307  
    ##  3     0.271       0.567                   0.567            0.271  
    ##  4     0.389       0.596                   0.596            0.389  
    ##  5     0.0979      0.524                   0.524            0.0979 
    ##  6     0.262       0.565                   0.565            0.262  
    ##  7    -0.124       0.469                   0.469           -0.124  
    ##  8    -0.00478     0.499                   0.499           -0.00478
    ##  9    -0.0784      0.480                   0.480           -0.0784 
    ## 10    -0.0908      0.477                   0.477           -0.0908 
    ## # … with 3,990 more rows
…
