…
a <- 0
b <- 0.8

d <-
  tibble(x = runif(n, min = -9, max = 9)) %>% 
  mutate(y = rbinom(n, size = 1, prob = plogis(a + b * x))) %>% 
  arrange(x) %>% 
  mutate(id = 1:n()) %>% 
  select(id, everything()) %>% 
  mutate(y_c = ifelse(id == 4, 1, y))

d
```

    ## # A tibble: 50 x 4
    ##       id     x     y   y_c
    ##    <int> <dbl> <int> <dbl>
    ##  1     1 -8.83     0     0
    ##  2     2 -8.28     0     0
    ##  3     3 -8.18     0     0
    ##  4     4 -6.95     0     1
    ##  5     5 -6.14     0     0
    ##  6     6 -5.74     0     0
    ##  7     7 -5.64     0     0
    ##  8     8 -5.38     0     0
    ##  9     9 -5.06     0     0
    ## 10    10 -4.82     0     0
    ## # … with 40 more rows
…
