…
# simulate
set.seed(16)

fake <-
  tibble(z = sample(rep(0:1, times = n / 2))) %>% 
  mutate(y = ifelse(z == 0,
                    rnorm(n(), mean = 60, sd = 20),
                    rnorm(n(), mean = 65, sd = 20)))

# what did we do?
fake
```

    ## # A tibble: 100 x 2
    ##        z     y
    ##    <int> <dbl>
    ##  1     0  57.7
    ##  2     0  77.7
    ##  3     0  60.3
    ##  4     0  75.5
    ##  5     0  61.5
    ##  6     1  89.5
    ##  7     1 117. 
    ##  8     1  27.4
    ##  9     0  78.8
    ## 10     1  45.9
    ## # … with 90 more rows
…
