…
<img src="19_files/figure-gfm/unnamed-chunk-8-1.png" width="672" style="display: block; margin: auto;" />

### 19.2.2 Paired comparisons design.

The study used a a matched pairs design, which is depicted in the
`pair_id` column.

``` r
electric %>% 
  count(pair_id)
```

    ## # A tibble: 96 x 2
    ##    pair_id     n
    ##      <dbl> <int>
    ##  1       1     2
    ##  2       2     2
    ##  3       3     2
    ##  4       4     2
    ##  5       5     2
    ##  6       6     2
    ##  7       7     2
    ##  8       8     2
    ##  9       9     2
    ## 10      10     2
    ## # … with 86 more rows
…
